<?xml version="1.0" encoding="UTF-8" standalone="no"?>
<!DOCTYPE svg PUBLIC "-//W3C//DTD SVG 1.1//EN" "http://www.w3.org/Graphics/SVG/1.1/DTD/svg11.dtd">
<svg width="100%" height="100%" viewBox="0 0 318 260" version="1.1" xmlns="http://www.w3.org/2000/svg" xmlns:xlink="http://www.w3.org/1999/xlink" xml:space="preserve" xmlns:serif="http://www.serif.com/" style="fill-rule:evenodd;clip-rule:evenodd;stroke-linecap:round;stroke-linejoin:round;stroke-miterlimit:1.5;">
    <g transform="matrix(1,0,0,1,-360.938,-12.0001)">
        <g id="Layer1">
            <path d="M598,269C598,269 546.393,265.676 520.51,265.676C494.343,265.676 441,269 441,269C441,269 439,268.517 439,265C439,261.483 442.121,256.321 447,253C451.879,249.679 466.415,242.382 467,241C467.585,239.618 467.495,238.272 467,236C466.505,233.728 465.844,227.56 459,225C452.156,222.44 437.316,218.554 432,215C426.684,211.446 384.344,186.766 377,142C374.629,125.318 372.052,92.461 371,83C369.948,73.539 364.78,64.939 364,59C363.22,53.061 369.777,38.731 388,32C406.223,25.269 451,15 519.266,15C585,15 632.813,25.283 651,32C669.223,38.731 675.78,53.061 675,59C674.22,64.939 669.052,73.539 668,83C666.948,92.461 664.371,125.318 662,142C654.656,186.766 612.316,211.446 607,215C601.684,218.554 586.844,222.44 580,225C573.156,227.56 572.495,233.728 572,236C571.505,238.272 571.415,239.618 572,241C572.585,242.382 587.121,249.679 592,253C596.879,256.321 600,261.483 600,265C600,268.517 598,269 598,269Z" style="fill:rgb(211,211,211);stroke:rgb(64,64,64);stroke-width:6px;"/>
        </g>
    </g>
</svg>
