<?xml version="1.0" encoding="UTF-8" standalone="no"?>
<!DOCTYPE svg PUBLIC "-//W3C//DTD SVG 1.1//EN" "http://www.w3.org/Graphics/SVG/1.1/DTD/svg11.dtd">
<svg width="100%" height="100%" viewBox="0 0 424 996" version="1.1" xmlns="http://www.w3.org/2000/svg" xmlns:xlink="http://www.w3.org/1999/xlink" xml:space="preserve" xmlns:serif="http://www.serif.com/" style="fill-rule:evenodd;clip-rule:evenodd;stroke-linejoin:round;stroke-miterlimit:2;">
    <g transform="matrix(1,0,0,1,-307.744,-15.0001)">
        <g id="Layer1">
            <path d="M731,966C665.86,1017.08 519.346,1010.33 519.346,1010.33C519.346,1010.33 373.14,1017.08 308,966C307.424,957.202 308,950 308,950C308,950 312.112,944.106 312,942C311.888,939.894 312,926 312,926C312,926 321.289,909.862 336,907L336,852C336,852 333,850.048 333,847C333,843.952 333.24,841.525 335,839C335,834.749 335.98,769.808 336,769.742C336.02,769.677 335,767.403 335,764C335,760.597 336.654,759.464 337,759L337,682C337,682 335,681.281 335,678C335,674.719 337.067,674.629 337,674C337.083,670.675 337,605 337,605C337,605 335,603.669 335,601C335,597.132 336.618,597.617 337,597L337,518C337,518 337.903,515.093 340,515L340,511C340,511 344.58,506.66 345.438,506.161C345.438,505.295 345.001,475.041 396,474C396,467.787 397,463 397,463C397,463 401.873,454 413,454L413,451C413,451 412,450.075 412,447C412,443.925 413.147,443.853 414,443L414,441C414,441 410.804,440.329 410.804,438.106C410.804,435.882 410.942,399.797 410.942,399.797C410.942,399.797 412.156,394.556 415,392C417.844,389.444 421.79,387.048 426,387C428,386.977 429.886,384.403 430,384L430,379C430,379 428,378.29 428,375C428,371.71 430,371 430,371C430,371 426.008,365 426,365C425.992,365 426,324 426,324L437,311L437,277L441,272L441,269C441,269 439,268.517 439,265C439,261.483 442.121,256.321 447,253C451.879,249.679 466.415,242.382 467,241C467.585,239.618 467.495,238.272 467,236C466.505,233.728 465.844,227.56 459,225C452.156,222.44 437.316,218.554 432,215C426.684,211.446 384.344,186.766 377,142C374.629,125.318 372.052,92.461 371,83C369.948,73.539 364.78,64.939 364,59C363.22,53.061 369.777,38.731 388,32C406.223,25.269 451,15 519.266,15C585,15 632.813,25.283 651,32C669.223,38.731 675.78,53.061 675,59C674.22,64.939 669.052,73.539 668,83C666.948,92.461 664.371,125.318 662,142C654.656,186.766 612.316,211.446 607,215C601.684,218.554 586.844,222.44 580,225C573.156,227.56 572.495,233.728 572,236C571.505,238.272 571.415,239.618 572,241C572.585,242.382 587.121,249.679 592,253C596.879,256.321 600,261.483 600,265C600,268.517 598,269 598,269L598,272L602,277L602,311L613,324C613,324 613.008,365 613,365C612.992,365 609,371 609,371C609,371 611,371.71 611,375C611,378.29 609,379 609,379L609,384C609.114,384.403 611,386.977 613,387C617.21,387.048 621.156,389.444 624,392C626.844,394.556 628.058,399.797 628.058,399.797C628.058,399.797 628.196,435.882 628.196,438.106C628.196,440.329 625,441 625,441L625,443C625.853,443.853 627,443.925 627,447C627,450.075 626,451 626,451L626,454C637.127,454 642,463 642,463C642,463 643,467.787 643,474C693.999,475.041 693.562,505.295 693.562,506.161C694.42,506.66 699,511 699,511L699,515C701.097,515.093 702,518 702,518L702,597C702.382,597.617 704,597.132 704,601C704,603.669 702,605 702,605C702,605 701.917,670.675 702,674C701.933,674.629 704,674.719 704,678C704,681.281 702,682 702,682L702,759C702.346,759.464 704,760.597 704,764C704,767.403 702.98,769.677 703,769.742C703.02,769.808 704,834.749 704,839C705.76,841.525 706,843.952 706,847C706,850.048 703,852 703,852L703,907C717.711,909.862 727,926 727,926C727,926 727.112,939.894 727,942C726.888,944.106 731,950 731,950C731,950 731.576,957.202 731,966Z"/>
        </g>
    </g>
</svg>
